\BOOKMARK [2][]{Outline0.1}{\376\377\000F\000o\000r\000e\000w\000o\000r\000d}{}% 1
\BOOKMARK [2][]{Outline0.2}{\376\377\000B\000a\000s\000i\000c\000s}{}% 2
\BOOKMARK [3][]{Outline0.2.1.3}{\376\377\000T\000e\000r\000m\000i\000n\000a\000l\000.\000\040\000C\000L\000I\000.\000\040\000S\000h\000e\000l\000l}{Outline0.2}% 3
\BOOKMARK [3][]{Outline0.2.2.4}{\376\377\000S\000h\000e\000l\000l}{Outline0.2}% 4
\BOOKMARK [3][]{Outline0.2.3.5}{\376\377\000C\000o\000m\000m\000a\000n\000d\000s}{Outline0.2}% 5
\BOOKMARK [3][]{Outline0.2.4.8}{\376\377\000P\000i\000p\000e\000s}{Outline0.2}% 6
\BOOKMARK [2][]{Outline0.3}{\376\377\000M\000i\000s\000c\000e\000l\000l\000a\000n\000e\000o\000u\000s}{}% 7
\BOOKMARK [3][]{Outline0.3.1.10}{\376\377\000J\000o\000b\000s\000\040\000M\000a\000n\000a\000g\000e\000m\000e\000n\000t}{Outline0.3}% 8
\BOOKMARK [3][]{Outline0.3.2.11}{\376\377\000E\000n\000v\000i\000r\000o\000n\000m\000e\000n\000t\000\040\000V\000a\000r\000i\000a\000b\000l\000e\000s}{Outline0.3}% 9
\BOOKMARK [3][]{Outline0.3.3.12}{\376\377\000S\000h\000e\000l\000l\000\040\000C\000u\000s\000t\000o\000m\000i\000z\000a\000t\000i\000o\000n}{Outline0.3}% 10
\BOOKMARK [3][]{Outline0.3.4.13}{\376\377\000T\000r\000i\000c\000k\000s\000\040\000a\000n\000d\000\040\000T\000i\000p\000s}{Outline0.3}% 11
\BOOKMARK [2][]{Outline0.4}{\376\377\000C\000o\000n\000c\000l\000u\000s\000i\000o\000n}{}% 12
\BOOKMARK [3][]{Outline0.4.1.15}{\376\377\000L\000i\000m\000i\000t\000s\000.\000\040\000C\000o\000n\000c\000l\000u\000s\000i\000o\000n}{Outline0.4}% 13
