jsh> Running [mkdir -p test]
jsh> Running [cd test]
jsh> Running [touch test/a_file]
jsh> Running [touch test/another_file]
jsh> Running [ls -1 test]
a_file
another_file
jsh> Running [rmdir test]
rmdir: failed to remove 'test': Directory not empty
jsh> Running [rm test/a_file]
jsh> Running [rm test/another_file]
jsh> Running [rmdir test]
jsh> Running [Is_this_a_valid_command?]
jsh> 
