/home/schastel/workspace.ics332/Jsh1 # ... A random directory is displayed here
/home/schastel/workspace.ics332/Jsh1/test
/home/schastel/workspace.ics332/Jsh1
a_file
/home/schastel/workspace.ics332/Jsh1/1/2/3/4
/home/schastel/workspace.ics332/Jsh1
4
1
a_file
